{"frames": [

{
	"filename": "globulo0000.png",
	"frame": {"x":1,"y":1,"w":748,"h":741},
	"rotated": false,
	"trimmed": true,
	"spriteSourceSize": {"x":0,"y":3,"w":748,"h":741},
	"sourceSize": {"w":749,"h":744}
},
{
	"filename": "globulo0001.png",
	"frame": {"x":1,"y":744,"w":748,"h":741},
	"rotated": false,
	"trimmed": true,
	"spriteSourceSize": {"x":0,"y":3,"w":748,"h":741},
	"sourceSize": {"w":749,"h":744}
},
{
	"filename": "globulo0002.png",
	"frame": {"x":751,"y":1,"w":747,"h":741},
	"rotated": false,
	"trimmed": true,
	"spriteSourceSize": {"x":0,"y":3,"w":747,"h":741},
	"sourceSize": {"w":749,"h":744}
},
{
	"filename": "globulo0003.png",
	"frame": {"x":751,"y":744,"w":747,"h":741},
	"rotated": false,
	"trimmed": true,
	"spriteSourceSize": {"x":0,"y":3,"w":747,"h":741},
	"sourceSize": {"w":749,"h":744}
},
{
	"filename": "globulo0004.png",
	"frame": {"x":1500,"y":1,"w":747,"h":741},
	"rotated": false,
	"trimmed": true,
	"spriteSourceSize": {"x":0,"y":3,"w":747,"h":741},
	"sourceSize": {"w":749,"h":744}
},
{
	"filename": "globulo0005.png",
	"frame": {"x":1500,"y":744,"w":747,"h":741},
	"rotated": false,
	"trimmed": true,
	"spriteSourceSize": {"x":0,"y":3,"w":747,"h":741},
	"sourceSize": {"w":749,"h":744}
},
{
	"filename": "globulo0006.png",
	"frame": {"x":2249,"y":1,"w":747,"h":741},
	"rotated": false,
	"trimmed": true,
	"spriteSourceSize": {"x":0,"y":3,"w":747,"h":741},
	"sourceSize": {"w":749,"h":744}
},
{
	"filename": "globulo0007.png",
	"frame": {"x":2998,"y":1,"w":747,"h":741},
	"rotated": false,
	"trimmed": true,
	"spriteSourceSize": {"x":0,"y":3,"w":747,"h":741},
	"sourceSize": {"w":749,"h":744}
},
{
	"filename": "globulo0008.png",
	"frame": {"x":2249,"y":744,"w":747,"h":741},
	"rotated": false,
	"trimmed": true,
	"spriteSourceSize": {"x":0,"y":3,"w":747,"h":741},
	"sourceSize": {"w":749,"h":744}
},
{
	"filename": "globulo0009.png",
	"frame": {"x":2998,"y":744,"w":747,"h":741},
	"rotated": false,
	"trimmed": true,
	"spriteSourceSize": {"x":0,"y":3,"w":747,"h":741},
	"sourceSize": {"w":749,"h":744}
}],
"meta": {
	"app": "http://www.codeandweb.com/texturepacker",
	"version": "1.0",
	"image": "GlobRed.png",
	"format": "RGBA8888",
	"size": {"w":3746,"h":1486},
	"scale": "1",
	"smartupdate": "$TexturePacker:SmartUpdate:9d03aa2fb827d8dd74432df4a7695d46:54184f2cec8764857971fd21e428e93b:17c9d5565c2841850f376a6ae96581a5$"
}
}
